<svg xmlns="http://www.w3.org/2000/svg" width="512" height="512" viewBox="0 0 48 48">
<path d="M24 12C26.2091 12 28 10.2091 28 8C28 5.79086 26.2091 4 24 4C21.7909 4 20 5.79086 20 8C20 10.2091 21.7909 12 24 12Z" fill="param(fill) #333333"/>
<path d="M31.5 9C32.3284 9 33 8.2312 33 7.28283C33 5.7803 31.5 4 31.5 4C31.5 4 30 5.7803 30 7.28283C30 8.2312 30.6716 9 31.5 9Z" fill="param(fill) #333333"/>
<path d="M38 14.9394C38 16.0774 37.1046 17 36 17C34.8954 17 34 16.0774 34 14.9394C34 14.1718 34.3625 13.3437 34.7788 12.6459L34.8135 12.5883C34.8481 12.5313 34.883 12.4752 34.9181 12.4201C35.4438 11.5941 36 11 36 11C36 11 36.6595 11.7045 37.2211 12.6459C37.2402 12.6778 37.2591 12.71 37.278 12.7425C37.6699 13.4194 38 14.2069 38 14.9394Z" fill="param(fill) #333333"/>
<path fill-rule="evenodd" clip-rule="evenodd" d="M33.227 16.3428C32.5759 15.2281 31.405 14 29.5556 14H18.4444C16.595 14 15.4241 15.2281 14.773 16.3428C14.1243 17.4534 13.7458 18.8236 13.5082 20.06C13.026 22.5687 13 25.227 13 26C13 27.1046 13.8954 28 15 28C16.1046 28 17 27.1046 17 26C17 25.273 17.0295 22.9313 17.4363 20.815C17.5909 20.0103 17.7833 19.3328 18 18.8206V42C18 43.0747 18.8493 43.9573 19.9232 43.9985C20.9972 44.0398 21.9117 43.2249 21.9941 42.1534L22.9941 29.1534C22.998 29.1022 23 29.051 23 29H25C25 29.051 25.002 29.1022 25.0059 29.1534L26.0059 42.1534C26.0883 43.2249 27.0028 44.0398 28.0768 43.9985C29.1507 43.9573 30 43.0747 30 42V18.8206C30.2167 19.3328 30.4091 20.0103 30.5637 20.815C30.9705 22.9313 31 25.273 31 26C31 27.1046 31.8954 28 33 28C34.1046 28 35 27.1046 35 26C35 25.227 34.974 22.5687 34.4918 20.06C34.2542 18.8236 33.8757 17.4534 33.227 16.3428ZM22 24C23.1046 24 24 23.0774 24 21.9394C24 20.1364 22 18 22 18C22 18 20 20.1364 20 21.9394C20 23.0774 20.8954 24 22 24Z" fill="param(fill) #333333"/>
</svg>