<svg xmlns="http://www.w3.org/2000/svg" width="512" height="512" viewBox="0 0 48 48">
<path d="M36.848 28.008C37.1238 28.0089 37.3954 27.9413 37.6381 27.8114C37.8808 27.6815 38.0868 27.4935 38.2374 27.2644C38.3879 27.0353 38.4782 26.7725 38.5 26.5C38.5219 26.2275 38.4745 25.9538 38.3623 25.7041C36.7428 22.1093 34.0153 18.0739 34.0153 18.0739L33.8218 14.9069C33.8233 14.6752 33.7613 14.3357 33.6746 14H35.021C36.3316 14 37.5948 14.5364 38.5311 15.5014C39.4683 16.4675 40 17.784 40 19.1629V36H34.7586L34.9133 28.008H36.848Z" fill="param(fill) #333333"/>
<path fill-rule="evenodd" clip-rule="evenodd" d="M48 0H0V48H48V0ZM34.7586 36L34.7198 38H42V19.1629C42 17.2728 41.2719 15.4542 39.9665 14.1088C38.6602 12.7623 36.8819 12 35.021 12H32.7999C30.9666 8.84925 28.148 7.16283 23.944 6.32729C17.6312 5.07418 11.8123 7.50879 8.59568 12.1007H22V12H32.7999C33.0028 12.3487 33.1936 12.7153 33.3728 13.1006C33.4715 13.3167 33.586 13.6564 33.6746 14H24V26.2149C24 28.8197 25.0042 31.3119 26.7824 33.1448C28.5597 34.9767 30.9635 36 33.4634 36H34.7586ZM22 14.1007L7.4279 14.1007C6.67455 15.6751 6.19099 17.4312 6.03734 19.3256H22V14.1007ZM22 21.3256H6C6.08461 23.1504 6.51046 24.9462 7.25831 26.6209C8.11604 28.5416 9.37758 30.2587 10.9585 31.6572V42H27.5359V38H30V37.4493C28.2584 36.8818 26.6587 35.8895 25.347 34.5374C23.2007 32.3251 22 29.3309 22 26.2149V21.3256Z" fill="param(fill) #333333"/>
</svg>