<svg xmlns="http://www.w3.org/2000/svg" width="512" height="512" viewBox="0 0 48 48">
<path fill-rule="evenodd" clip-rule="evenodd" d="M39 8H9C8.44771 8 8 8.44772 8 9V39C8 39.5523 8.44772 40 9 40H39C39.5523 40 40 39.5523 40 39V9C40 8.44771 39.5523 8 39 8ZM9 6C7.34315 6 6 7.34315 6 9V39C6 40.6569 7.34315 42 9 42H39C40.6569 42 42 40.6569 42 39V9C42 7.34315 40.6569 6 39 6H9Z" fill="param(fill) #333333"/>
<path fill-rule="evenodd" clip-rule="evenodd" d="M17.3142 6.8451C17.3142 7.00525 17.3149 10.5969 17.3163 10.7405C17.35 14.3482 17.817 16.1167 18.7342 17.0618C19.5398 17.892 20.8979 18.2938 23.4483 18.3692C23.6502 16.3334 24.4621 14.709 25.6552 13.5517C27.0283 12.2198 28.8467 11.5652 30.6465 11.5652C32.4464 11.5652 34.2647 12.2198 35.6379 13.5517C37.0228 14.895 37.894 16.8677 37.894 19.3824V27.7146C37.894 30.0693 37.503 32.5607 36.2917 34.4946C35.0351 36.5007 32.9564 37.8043 29.8822 37.8043C26.7189 37.8043 24.523 35.9216 22.5827 34.2475L22.5209 34.1941C20.5454 32.4895 18.7691 30.9566 16.2502 30.6087C15.1924 30.6197 14.4572 30.9033 13.9288 31.2903C13.3803 31.6921 12.9866 32.2557 12.7081 32.9075C12.1388 34.2399 12.12 35.7752 12.1475 36.4349C12.153 36.5657 12.1558 37.983 12.1578 39.3149C12.1587 39.9926 12.1595 40.6637 12.1599 41.1653L12.1606 41.9984L10.1606 42.0006L10.1599 41.1672C10.1595 40.6657 10.1587 39.995 10.1578 39.3178C10.1568 38.6405 10.1555 37.9572 10.154 37.4304C10.1532 37.1668 10.1524 36.9432 10.1514 36.7793C10.151 36.6972 10.1505 36.6311 10.15 36.5829C10.1497 36.5503 10.1494 36.5317 10.1493 36.5229C10.1492 36.5165 10.1492 36.5154 10.1493 36.5182C10.1181 35.7703 10.1212 33.8715 10.869 32.1216C11.249 31.2323 11.8377 30.3429 12.747 29.6768C13.666 29.0037 14.8454 28.6083 16.3142 28.6083C16.709 28.6083 17.0741 28.6172 17.4211 28.6256C18.053 28.6409 18.625 28.6548 19.2082 28.6111C20.0595 28.5473 20.7286 28.3639 21.2728 27.956C22.2993 27.1866 23.2743 25.3012 23.3881 20.369C20.7403 20.2934 18.675 19.8726 17.2989 18.4547C15.769 16.8782 15.3497 14.3305 15.3164 10.7592C15.3149 10.6031 15.3142 6.99472 15.3142 6.8451H17.3142ZM20.8777 30.344C21.9171 31.0286 22.8334 31.8206 23.6862 32.5578C23.7543 32.6166 23.8219 32.6752 23.8893 32.7332C25.8996 34.4678 27.5623 35.8043 29.8822 35.8043C32.291 35.8043 33.7181 34.8355 34.5967 33.4329C35.5205 31.9582 35.894 29.9048 35.894 27.7146V19.3824C35.894 17.3524 35.2033 15.9164 34.2454 14.9873C33.2758 14.0468 31.9704 13.5652 30.6465 13.5652C29.3227 13.5652 28.0173 14.0468 27.0477 14.9873C26.0898 15.9164 25.3991 17.3524 25.3991 19.3824C25.3991 25.0721 24.4119 28.1026 22.4723 29.5563C21.9668 29.9353 21.4266 30.1828 20.8777 30.344Z" fill="param(fill) #333333"/>
<path d="M36.894 25.0635C32.3492 28.9994 29.698 21.1276 24.017 25.0635L22.502 28.0934L18.7147 29.9871C18.7147 29.9871 25.9107 36.8043 30.0768 36.8043C34.2429 36.8043 37.6515 33.017 36.894 25.0635Z" fill="param(fill) #333333"/>
</svg>