<svg xmlns="http://www.w3.org/2000/svg" width="512" height="512" viewBox="0 0 48 48">
<path d="M10.8507 11.105C11.0882 11 11.3453 10.9738 11.5927 11.0263C11.8406 11.0789 12.0778 11.2107 12.2704 11.4161C12.6481 11.819 13.2809 11.8395 13.6838 11.4619C14.0868 11.0842 14.1073 10.4514 13.7296 10.0484C13.2668 9.55455 12.669 9.21013 12.0079 9.06983C11.3462 8.92939 10.6611 9.00217 10.0422 9.27565C9.42437 9.54871 8.90684 10.0063 8.54737 10.5803C8.18825 11.1538 8 11.8217 8 12.5C8 13.1784 8.18825 13.8463 8.54737 14.4197C8.90684 14.9937 9.42437 15.4513 10.0422 15.7244C10.6611 15.9978 11.3462 16.0706 12.0079 15.9302C12.669 15.7899 13.2668 15.4455 13.7296 14.9516C14.1073 14.5487 14.0868 13.9158 13.6838 13.5381C13.2809 13.1605 12.6481 13.181 12.2704 13.5839C12.0778 13.7893 11.8406 13.9211 11.5927 13.9738C11.3453 14.0262 11.0882 14 10.8507 13.895C10.6123 13.7897 10.3979 13.6064 10.2424 13.3582C10.0866 13.1094 10 12.8106 10 12.5C10 12.1894 10.0866 11.8907 10.2424 11.6418C10.3979 11.3936 10.6123 11.2103 10.8507 11.105Z" fill="param(fill) #333333"/>
<path d="M40 24C40 22.8954 39.1046 22 38 22C36.8954 22 36 22.8954 36 24C36 25.1046 36.8954 26 38 26C39.1046 26 40 25.1046 40 24Z" fill="param(fill) #333333"/>
<path d="M32.5 25.5C31.6716 25.5 31 24.8284 31 24C31 23.1716 31.6716 22.5 32.5 22.5C33.3284 22.5 34 23.1716 34 24C34 24.8284 33.3284 25.5 32.5 25.5Z" fill="param(fill) #333333"/>
<path fill-rule="evenodd" clip-rule="evenodd" d="M11 27C9.34315 27 8 25.6569 8 24C8 22.3431 9.34315 21 11 21L26 21C27.6569 21 29 22.3431 29 24C29 25.6569 27.6569 27 26 27H11ZM11 23H13V25H11C10.4477 25 10 24.5523 10 24C10 23.4477 10.4477 23 11 23ZM26 25H15V23L26 23C26.5523 23 27 23.4477 27 24C27 24.5523 26.5523 25 26 25Z" fill="param(fill) #333333"/>
<path fill-rule="evenodd" clip-rule="evenodd" d="M11 31C7.13401 31 4 27.866 4 24C4 20.134 7.13401 17 11 17L37 17C40.866 17 44 20.134 44 24C44 27.866 40.866 31 37 31L11 31ZM11 19L37 19C39.7614 19 42 21.2386 42 24C42 26.7614 39.7614 29 37 29L11 29C8.23858 29 6 26.7614 6 24C6 21.2386 8.23858 19 11 19Z" fill="param(fill) #333333"/>
<path fill-rule="evenodd" clip-rule="evenodd" d="M13 33C13 32.4477 13.4477 32 14 32H16.5C17.8807 32 19 33.1193 19 34.5C19 35.8807 17.8807 37 16.5 37H15V38C15 38.5523 14.5523 39 14 39C13.4477 39 13 38.5523 13 38V33ZM15 35H16.5C16.7761 35 17 34.7761 17 34.5C17 34.2239 16.7761 34 16.5 34H15V35Z" fill="param(fill) #333333"/>
<path fill-rule="evenodd" clip-rule="evenodd" d="M28 9C27.4477 9 27 9.44772 27 10V15C27 15.5523 27.4477 16 28 16C28.5523 16 29 15.5523 29 15V14H30.5C31.8807 14 33 12.8807 33 11.5C33 10.1193 31.8807 9 30.5 9H28ZM30.5 12H29V11H30.5C30.7761 11 31 11.2239 31 11.5C31 11.7761 30.7761 12 30.5 12Z" fill="param(fill) #333333"/>
<path d="M22.5 39C22.9168 39 23.2899 38.7414 23.4363 38.3511L24.9364 34.3511C25.1303 33.834 24.8683 33.2576 24.3512 33.0637C23.834 32.8697 23.2576 33.1317 23.0637 33.6489L22.5 35.152L21.9364 33.6489C21.7424 33.1318 21.166 32.8698 20.6489 33.0637C20.1318 33.2576 19.8698 33.834 20.0637 34.3511L21.5636 38.3511C21.71 38.7414 22.0831 39 22.5 39Z" fill="param(fill) #333333"/>
<path d="M35 16C35.5523 16 36 15.5523 36 15V13C36.5523 13 37 12.5523 37 12C37 11.4479 36.5526 11.0003 36.0005 11C36.5526 10.9997 37 10.5521 37 10C37 9.44772 36.5523 9 36 9C35.2741 9 34.7239 9.32487 34.3885 9.7907C34.0898 10.2055 34 10.6733 34 11C33.4477 11 33 11.4477 33 12C33 12.5523 33.4477 13 34 13V15C34 15.5523 34.4477 16 35 16Z" fill="param(fill) #333333"/>
</svg>