<svg xmlns="http://www.w3.org/2000/svg" width="512" height="512" viewBox="0 0 48 48">
<path fill-rule="evenodd" clip-rule="evenodd" d="M33.5005 14C31.2913 14 29.5005 12.2091 29.5005 10C29.5005 7.79086 31.2913 6 33.5005 6C35.7096 6 37.5005 7.79086 37.5005 10C37.5005 12.2091 35.7096 14 33.5005 14ZM33.5005 12C32.3959 12 31.5005 11.1046 31.5005 10C31.5005 8.89543 32.3959 8 33.5005 8C34.6051 8 35.5005 8.89543 35.5005 10C35.5005 11.1046 34.6051 12 33.5005 12Z" fill="param(fill) #333333"/>
<path fill-rule="evenodd" clip-rule="evenodd" d="M38.6303 16.8415C37.6389 16.2453 36.5453 16 35.4547 16H31.5463C30.4557 16 29.3621 16.2453 28.3707 16.8415C27.3815 17.4364 26.6715 18.2739 26.1791 19.1838C25.25 20.9006 25.0005 23.0478 25.0005 25.1435V25.2321C25.0005 25.2617 25.0018 25.2912 25.0044 25.3206L25.0122 25.4088L25.0131 25.4224C25.0136 25.4327 25.0143 25.4468 25.0149 25.4657C25.0161 25.5038 25.0172 25.5553 25.0178 25.6231C25.0191 25.7589 25.0186 25.9482 25.0159 26.2059C25.0147 26.3209 25.0132 26.4452 25.0115 26.5785L25.0115 26.5821C25.0065 26.9889 25.0005 27.4753 25.0005 28C25.0005 29.6569 26.3436 31 28.0005 31C28.1706 31 28.3377 30.9858 28.5005 30.9584V39.5C28.5005 40.8228 29.5309 41.9166 30.8513 41.9955C32.1717 42.0745 33.3251 41.1112 33.4827 39.7979L33.5005 39.6495L33.5183 39.7979C33.6759 41.1112 34.8293 42.0745 36.1497 41.9955C37.4701 41.9166 38.5005 40.8228 38.5005 39.5V30.9584C38.6633 30.9858 38.8304 31 39.0005 31C40.6573 31 42.0005 29.6569 42.0005 28C42.0005 27.4745 41.9945 26.9877 41.9895 26.5805L41.9895 26.5787C41.9878 26.4454 41.9863 26.3209 41.9851 26.2059C41.9824 25.9482 41.9819 25.7589 41.9832 25.6231C41.9838 25.5553 41.9848 25.5038 41.9861 25.4657C41.9867 25.4468 41.9873 25.4327 41.9879 25.4224L41.9887 25.4087L41.9966 25.3206C41.9992 25.2912 42.0005 25.2617 42.0005 25.2321V25.1435C42.0005 23.0478 41.751 20.9006 40.8219 19.1838C40.3295 18.2739 39.6195 17.4364 38.6303 16.8415ZM28.0005 29C28.1843 29 28.3537 28.9513 28.4998 28.8668L28.5005 23H30.5005V39.5C30.5005 39.7645 30.7066 39.9833 30.9706 39.9991C31.2347 40.0149 31.4654 39.8222 31.4969 39.5596L32.5076 31.1372C32.5679 30.6346 32.9943 30.2563 33.5005 30.2563C34.0067 30.2563 34.4331 30.6346 34.4934 31.1372L35.504 39.5596C35.5356 39.8222 35.7662 40.0149 36.0303 39.9991C36.2944 39.9833 36.5005 39.7645 36.5005 39.5L36.5005 23H38.5005L38.5012 28.8668C38.6473 28.9513 38.8167 29 39.0005 29C39.5528 29 40.0005 28.5523 40.0005 28C40.0005 27.4876 39.9946 27.011 39.9896 26.6025C39.988 26.4699 39.9864 26.3439 39.9852 26.2267C39.98 25.7244 39.9815 25.4014 39.9966 25.232L40.0005 25.1878V25.1435C40.0005 23.1478 39.7514 21.4078 39.063 20.1357C38.7094 19.4823 38.2302 18.9347 37.5995 18.5554C36.9681 18.1757 36.2435 18 35.4547 18H31.5463C30.7575 18 30.0329 18.1757 29.4015 18.5554C28.7708 18.9347 28.2916 19.4823 27.938 20.1357C27.2496 21.4078 27.0005 23.1478 27.0005 25.1435V25.1878L27.0044 25.232C27.0195 25.4014 27.021 25.7244 27.0158 26.2267C27.0146 26.3423 27.013 26.4674 27.0114 26.5982L27.0114 26.6031C27.0063 27.0116 27.0005 27.4875 27.0005 28C27.0005 28.5523 27.4482 29 28.0005 29Z" fill="param(fill) #333333"/>
<path fill-rule="evenodd" clip-rule="evenodd" d="M10.0006 10C10.0006 12.2091 11.7915 14 14.0006 14C16.2098 14 18.0006 12.2091 18.0006 10C18.0006 7.79086 16.2098 6 14.0006 6C11.7915 6 10.0006 7.79086 10.0006 10ZM12.0006 10C12.0006 11.1046 12.8961 12 14.0006 12C15.1052 12 16.0006 11.1046 16.0006 10C16.0006 8.89543 15.1052 8 14.0006 8C12.8961 8 12.0006 8.89543 12.0006 10Z" fill="param(fill) #333333"/>
<path fill-rule="evenodd" clip-rule="evenodd" d="M10.5543 16.4437C11.3409 16.0476 12.0916 16.0001 12.5219 16L12.9845 16.0002L12.9916 16.0001L16.4796 16.0002C16.9094 16.0003 17.6598 16.0478 18.4464 16.4439C19.7772 17.1139 20.5367 18.2111 20.9878 19.1805C21.4192 20.1075 21.6679 21.1339 21.8525 21.9882C22.0278 22.7992 22.0321 22.8204 22.1319 23.333C22.2273 23.8232 22.4139 24.7823 22.9414 27.4096C23.2676 29.034 22.2152 30.6153 20.5907 30.9415C20.3307 30.9937 20.0719 31.0105 19.8192 30.9954L20.3584 34.0956C20.5077 34.9544 20.0745 35.8919 19.1484 36.2222C18.241 36.5458 16.5961 37 14.5006 37C12.4051 37 10.7603 36.5458 9.85284 36.2222C8.92678 35.8919 8.49355 34.9544 8.6429 34.0956L9.18211 30.9952C8.92924 31.0104 8.67022 30.9935 8.41003 30.9413C6.7856 30.6151 5.73315 29.0338 6.05933 27.4094C6.58699 24.7816 6.77367 23.8223 6.86905 23.3322C6.9688 22.8196 6.97295 22.799 7.14825 21.988C7.33293 21.1337 7.58162 20.1073 8.01301 19.1803C8.46412 18.211 9.2236 17.1138 10.5543 16.4437ZM13.0022 18.0002L12.5222 18C12.2374 18.0001 11.8431 18.034 11.4538 18.23C10.6608 18.6293 10.1635 19.2996 9.82627 20.0242C9.49605 20.7338 9.2845 21.5715 9.1031 22.4106C8.93074 23.2079 8.92837 23.2201 8.8345 23.7025L8.83222 23.7142C8.73603 24.2085 8.54865 25.1713 8.0202 27.8031C7.91147 28.3446 8.26228 28.8717 8.80376 28.9804C9.05507 29.0309 9.30379 28.9828 9.5095 28.861L10.6956 22.3372L12.6634 22.695L12.0378 26.1356L12.0619 26.109L10.6246 34.3734C11.3977 34.6394 12.7673 35 14.5006 35C16.234 35 17.6035 34.6394 18.3766 34.3734L16.94 26.1129L16.9641 26.1395L16.3379 22.695L18.3056 22.3372L19.4918 28.8615C19.6975 28.983 19.9459 29.031 20.197 28.9806C20.7385 28.8719 21.0893 28.3448 20.9806 27.8033C20.4521 25.1714 20.2648 24.2087 20.1686 23.7144L20.1663 23.7026C20.0724 23.2203 20.07 23.2081 19.8977 22.4108C19.7163 21.5716 19.5047 20.7339 19.1745 20.0243C18.8373 19.2997 18.34 18.6295 17.547 18.2302C17.1577 18.0342 16.7636 18.0003 16.4789 18.0002L13.0097 18.0001L13.0022 18.0002Z" fill="param(fill) #333333"/>
<path d="M17.7152 41.9131C18.4531 41.8064 19.0006 41.1741 19.0006 40.4285V38C17.695 38.1798 16.4933 38.2909 15.3185 38.3349L16.062 40.8533C16.2731 41.5683 16.9773 42.0197 17.7152 41.9131Z" fill="param(fill) #333333"/>
<path d="M13.7354 38.3537L12.9299 40.8836C12.7056 41.5882 12.0011 42.0243 11.2704 41.9107C10.5396 41.7972 10.0006 41.168 10.0006 40.4285V38.0921C11.3112 38.2491 12.5276 38.3369 13.7354 38.3537Z" fill="param(fill) #333333"/>
</svg>