<svg xmlns="http://www.w3.org/2000/svg" width="512" height="512" viewBox="0 0 48 48">
<path fill-rule="evenodd" clip-rule="evenodd" d="M14.4998 13C16.4328 13 17.9998 11.433 17.9998 9.5C17.9998 7.567 16.4328 6 14.4998 6C12.5668 6 10.9998 7.567 10.9998 9.5C10.9998 11.433 12.5668 13 14.4998 13ZM19.6483 20C19.6981 20.3524 19.7421 20.7287 19.7804 21.1216C19.999 23.3666 19.9998 25.8009 19.9998 26.4998C19.9998 27.3282 20.6713 27.9998 21.4998 27.9998C22.3282 27.9998 22.9998 27.3282 22.9998 26.4998V26.493C22.9998 25.7857 22.9998 23.2288 22.7663 20.8308C22.6505 19.6418 22.4695 18.4015 22.1693 17.4252C22.0221 16.9462 21.8145 16.4227 21.4987 15.9892C21.1822 15.5547 20.5898 15 19.6884 15H9.31111C8.40976 15 7.81731 15.5547 7.5008 15.9892C7.18504 16.4227 6.97746 16.9462 6.83017 17.4252C6.52997 18.4015 6.349 19.6418 6.23324 20.8308C5.99974 23.2288 5.99975 25.7857 5.99976 26.493V26.4998C5.99976 27.3282 6.67133 27.9998 7.49976 27.9998C8.32818 27.9998 8.99976 27.3282 8.99976 26.4998C8.99976 25.8009 9.00052 23.3666 9.21911 21.1216C9.25737 20.7287 9.30136 20.3524 9.3512 20H9.99976L9.99975 40.4999C9.99975 41.305 10.6354 41.9666 11.4399 41.9987C12.2444 42.0308 12.9308 41.4221 12.995 40.6195L13.8445 30H15.155L16.0045 40.6196C16.0687 41.4222 16.7551 42.0309 17.5596 41.9988C18.3641 41.9667 18.9998 41.3051 18.9998 40.5V20H19.6483Z" fill="param(fill) #333333"/>
<path fill-rule="evenodd" clip-rule="evenodd" d="M37 9.5C37 11.433 35.433 13 33.5 13C31.567 13 30 11.433 30 9.5C30 7.567 31.567 6 33.5 6C35.433 6 37 7.567 37 9.5ZM37.8665 15.046C37.7467 15.0158 37.6236 15.0005 37.5 15.0005H32.0002C31.9869 15.0005 31.9733 15.0007 31.9601 15.001L31.4377 15.0009C30.6259 15.0008 29.7493 15.0008 29.4979 15.0012C29.375 15.0014 29.2526 15.0166 29.1335 15.0467C28.0198 15.3273 27.2715 16.0056 26.8006 16.9324C26.3884 17.7436 26.1874 18.7524 26.0204 19.7546L25.0204 25.7546C24.8842 26.5718 25.4362 27.3446 26.2534 27.4808C27.0705 27.617 27.8434 27.065 27.9796 26.2478L28.9796 20.2478C29.0724 19.6907 29.1579 19.2663 29.2448 18.9388L29.5 22.0002C29.4999 23.8697 27.806 32.4085 27.2069 35.3703C27.0942 35.9273 27.468 36.4634 28.0301 36.5471C32.1517 37.1615 34.8484 37.1418 38.9689 36.5426C39.5314 36.4608 39.9081 35.9272 39.7979 35.3696C39.2031 32.3609 37.5 23.6064 37.5 22L37.7552 18.9382C37.8421 19.2657 37.9276 19.6901 38.0204 20.2471L39.0204 26.2471C39.1566 27.0642 39.9294 27.6163 40.7466 27.4801C41.5638 27.3439 42.1158 26.5711 41.9796 25.7539L40.9796 19.7539C40.8126 18.7517 40.6116 17.7429 40.1994 16.9317C39.7285 16.0049 38.9802 15.3266 37.8665 15.046ZM30.0077 41.1241L29.6311 38.1115C30.6905 38.2418 31.6981 38.3256 32.6899 38.3637L31.9701 41.2426C31.8534 41.7097 31.4203 42.0273 30.9397 41.9982C30.4591 41.9692 30.0674 41.6018 30.0077 41.1241ZM35.0299 41.2421L34.3156 38.3853C35.3129 38.3733 36.3141 38.3149 37.3564 38.2111L36.9923 41.1236C36.9326 41.6014 36.5409 41.9687 36.0603 41.9977C35.5797 42.0268 35.1466 41.7092 35.0299 41.2421Z" fill="param(fill) #333333"/>
</svg>