<svg xmlns="http://www.w3.org/2000/svg" width="512" height="512" viewBox="0 0 48 48">
<path d="M11 30C11 29.4477 11.4477 29 12 29H26C26.5523 29 27 29.4477 27 30C27 30.5523 26.5523 31 26 31H12C11.4477 31 11 30.5523 11 30Z" fill="param(fill) #333333"/>
<path d="M12 34C11.4477 34 11 34.4477 11 35C11 35.5523 11.4477 36 12 36H26C26.5523 36 27 35.5523 27 35C27 34.4477 26.5523 34 26 34H12Z" fill="param(fill) #333333"/>
<path d="M14 21V18H16V21H19V23H16V26H14V23H11V21H14Z" fill="param(fill) #333333"/>
<path fill-rule="evenodd" clip-rule="evenodd" d="M15 6C13.3431 6 12 7.34315 12 9H9C7.34315 9 6 10.3431 6 12V39C6 40.6569 7.34315 42 9 42H29C30.6569 42 32 40.6569 32 39V12C32 10.3431 30.6569 9 29 9H26C26 7.34315 24.6569 6 23 6H15ZM23 12C23.5523 12 24 11.5523 24 11V9C24 8.44772 23.5523 8 23 8H15C14.4477 8 14 8.44772 14 9V11C14 11.5523 14.4477 12 15 12H23ZM12 11C12 12.6569 13.3431 14 15 14H23C24.6569 14 26 12.6569 26 11H29C29.5523 11 30 11.4477 30 12V39C30 39.5523 29.5523 40 29 40H9C8.44772 40 8 39.5523 8 39V12C8 11.4477 8.44772 11 9 11H12Z" fill="param(fill) #333333"/>
<path fill-rule="evenodd" clip-rule="evenodd" d="M36 17C36 15.3431 37.3431 14 39 14C40.6569 14 42 15.3431 42 17V37.3028L39 41.8028L36 37.3028V17ZM39 16C38.4477 16 38 16.4477 38 17V19H40V17C40 16.4477 39.5523 16 39 16ZM39 38.1972L40 36.6972V21H38V36.6972L39 38.1972Z" fill="param(fill) #333333"/>
</svg>