<svg xmlns="http://www.w3.org/2000/svg" width="512" height="512" viewBox="0 0 48 48">
<path fill-rule="evenodd" clip-rule="evenodd" d="M16 5H29L38 14V37C38 38.1046 37.1046 39 36 39H16C14.8954 39 14 38.1046 14 37V7C14 5.89543 14.8954 5 16 5ZM35 14L29 8V13C29 13.5523 29.4477 14 30 14H35ZM32.7071 21.2929C33.0976 21.6834 33.0976 22.3166 32.7071 22.7071L24 31.4142L19.2929 26.7071C18.9024 26.3166 18.9024 25.6834 19.2929 25.2929C19.6834 24.9024 20.3166 24.9024 20.7071 25.2929L24 28.5858L31.2929 21.2929C31.6834 20.9024 32.3166 20.9024 32.7071 21.2929Z" fill="param(fill) #333333"/>
<path d="M12 11H10V38C10 40.7614 12.2386 43 15 43H34V41H15C13.3431 41 12 39.6569 12 38V11Z" fill="param(fill) #333333"/>
</svg>