<svg xmlns="http://www.w3.org/2000/svg" width="512" height="512" viewBox="0 0 48 48">
<path fill-rule="evenodd" clip-rule="evenodd" d="M29.5844 22.8706C30.7438 22.8706 31.8763 22.5549 32.8338 21.9648C33.806 22.5538 34.9534 22.8626 36.1242 22.8503L39.8433 21.6286C40.8913 20.8487 41.6107 19.7675 41.8813 18.5661C42.1518 17.3646 41.9569 16.1157 41.3293 15.0284C40.7017 13.9411 39.6794 13.0813 38.4336 12.5931C38.1491 11.4298 37.4326 10.3894 36.4029 9.64443L32.7725 8.49751H32.3638C31.5563 7.43391 30.344 6.67523 28.9574 6.36571L21.1741 5.9707C19.8803 6.06775 18.6603 6.55488 17.7105 7.35371C17.2617 7.25819 16.8023 7.20868 16.3412 7.20612C15.2247 7.20819 14.1327 7.50194 13.1971 8.05191C12.2615 8.60187 11.5222 9.38455 11.0685 10.3055L8.11115 12.1966C7.37528 13.0966 6.97913 14.1863 6.98108 15.305C6.9738 15.7727 7.04266 16.2389 7.18545 16.6886C6.40957 17.5975 5.99236 18.7143 6.00011 19.8617C5.99826 21.1925 6.56142 22.4733 7.57375 23.4407C7.65545 24.3934 8.02424 25.3079 8.64022 26.085C9.2562 26.8622 10.0959 27.4725 11.0685 27.8499C12.1891 28.4841 13.138 29.337 13.8453 30.3458C14.5527 31.3547 15.0005 32.4939 15.1559 33.6796H17.8743V25.9364L15.2325 23.5882L13.4451 25.3757C13.0545 25.7662 12.4214 25.7662 12.0308 25.3757C11.6403 24.9852 11.6403 24.352 12.0308 23.9615L14.1148 21.8775L13.4797 18.3848L10.6544 16.9721C10.1604 16.7251 9.96018 16.1244 10.2072 15.6304C10.4542 15.1365 11.0548 14.9362 11.5488 15.1832L14.3156 16.5666L17.7773 14.3638L16.7107 11.5197C16.5168 11.0026 16.7788 10.4262 17.2959 10.2322C17.813 10.0383 18.3895 10.3003 18.5834 10.8174L19.721 13.851H21.1199L21.7691 12.5526L20.8188 10.3352C20.6013 9.82758 20.8364 9.2397 21.344 9.02214C21.8517 8.80459 22.4396 9.03974 22.6571 9.54737L23.4829 11.4742L26.7826 12.0741C26.8011 12.0568 26.8204 12.0401 26.8405 12.0241L28.886 10.3877C29.3173 10.0427 29.9466 10.1126 30.2916 10.5439C30.6366 10.9751 30.5666 11.6044 30.1354 11.9494L28.6637 13.1268L30.3929 15.3499L31.0708 13.9941C31.2402 13.6553 31.5865 13.4413 31.9652 13.4413H34.4198C34.9721 13.4413 35.4198 13.889 35.4198 14.4413C35.4198 14.9936 34.9721 15.4413 34.4198 15.4413H32.5833L32.164 16.2799L34.2276 16.7384C34.3074 16.7562 34.3847 16.7836 34.4579 16.8202L36.0942 17.6384C36.5882 17.8854 36.7884 18.486 36.5415 18.98C36.2945 19.474 35.6938 19.6742 35.1998 19.4272L33.6736 18.6641L30.1119 17.8726C29.8848 17.8221 29.6823 17.694 29.5395 17.5104L26.9104 14.1301L23.6471 13.5368C23.5854 13.5943 23.5156 13.6446 23.4385 13.6859L22.7379 15.0871V15.8958H24.1925C24.3478 15.8958 24.5009 15.932 24.6397 16.0014L27.9125 17.6378C28.4064 17.8848 28.6067 18.4854 28.3597 18.9794C28.1127 19.4734 27.512 19.6736 27.018 19.4266L23.9564 17.8958H22.7379V19.7601C22.7379 20.3124 22.2902 20.7601 21.7379 20.7601C21.1856 20.7601 20.7379 20.3124 20.7379 19.7601V15.851H19.1655L15.4784 18.1973L16.1146 21.6964L19.5387 24.7399C19.7521 24.9297 19.8743 25.2017 19.8743 25.4873V33.6796H22.7915V28.145C22.7901 27.1624 23.0938 26.199 23.6682 25.3642C24.2425 24.5295 25.0645 23.8567 26.041 23.4222C26.5901 23.2326 26.7252 22.9773 26.8907 22.6645C27.001 22.456 27.1249 22.222 27.3937 21.9648C27.6273 22.1087 27.8082 22.2364 27.9652 22.347C28.4518 22.6901 28.7077 22.8706 29.5844 22.8706Z" fill="param(fill) #333333"/>
<path fill-rule="evenodd" clip-rule="evenodd" d="M23 38.0001H15V36.0001H23V38.0001Z" fill="param(fill) #333333"/>
<path fill-rule="evenodd" clip-rule="evenodd" d="M23 42.0001H15V40.0001H23V42.0001Z" fill="param(fill) #333333"/>
</svg>