<svg xmlns="http://www.w3.org/2000/svg" width="512" height="512" viewBox="0 0 48 48">
<path fill-rule="evenodd" clip-rule="evenodd" d="M24 40C32.8366 40 40 32.8366 40 24C40 15.1634 32.8366 8 24 8C15.1634 8 8 15.1634 8 24C8 32.8366 15.1634 40 24 40ZM27.2929 17.2929C27.6834 16.9024 28.3166 16.9024 28.7071 17.2929L30.5 19.0858L32.2929 17.2929C32.6834 16.9024 33.3166 16.9024 33.7071 17.2929C34.0976 17.6834 34.0976 18.3166 33.7071 18.7071L31.9142 20.5L33.7071 22.2929C34.0976 22.6834 34.0976 23.3166 33.7071 23.7071C33.3166 24.0976 32.6834 24.0976 32.2929 23.7071L30.5 21.9142L28.7071 23.7071C28.3166 24.0976 27.6834 24.0976 27.2929 23.7071C26.9024 23.3166 26.9024 22.6834 27.2929 22.2929L29.0858 20.5L27.2929 18.7071C26.9024 18.3166 26.9024 17.6834 27.2929 17.2929ZM14.2929 17.2929C14.6834 16.9024 15.3166 16.9024 15.7071 17.2929L17.5 19.0858L19.2929 17.2929C19.6834 16.9024 20.3166 16.9024 20.7071 17.2929C21.0976 17.6834 21.0976 18.3166 20.7071 18.7071L18.9142 20.5L20.7071 22.2929C21.0976 22.6834 21.0976 23.3166 20.7071 23.7071C20.3166 24.0976 19.6834 24.0976 19.2929 23.7071L17.5 21.9142L15.7071 23.7071C15.3166 24.0976 14.6834 24.0976 14.2929 23.7071C13.9024 23.3166 13.9024 22.6834 14.2929 22.2929L16.0858 20.5L14.2929 18.7071C13.9024 18.3166 13.9024 17.6834 14.2929 17.2929ZM31 32C31 35.3137 27.866 36 24 36C20.134 36 17 35.3137 17 32C17 28.6863 20.134 26 24 26C27.866 26 31 28.6863 31 32Z" fill="param(fill) #333333"/>
<path fill-rule="evenodd" clip-rule="evenodd" d="M48 0H0V48H48V0ZM24 42C33.9411 42 42 33.9411 42 24C42 14.0589 33.9411 6 24 6C14.0589 6 6 14.0589 6 24C6 33.9411 14.0589 42 24 42Z" fill="param(fill) #333333"/>
</svg>