<svg xmlns="http://www.w3.org/2000/svg" width="512" height="512" viewBox="0 0 48 48">
<path fill-rule="evenodd" clip-rule="evenodd" d="M40 24C40 32.8366 32.8366 40 24 40C15.1634 40 8 32.8366 8 24C8 15.1634 15.1634 8 24 8C32.8366 8 40 15.1634 40 24ZM33 22C33 24.2091 31.8807 26 30.5 26C29.1193 26 28 24.2091 28 22C28 19.7909 29.1193 18 30.5 18C31.8807 18 33 19.7909 33 22ZM16.594 31.3798L16.5922 31.381C16.1263 31.6751 15.5101 31.537 15.2144 31.0718C14.9182 30.6057 15.0559 29.9877 15.522 29.6914L16.0583 30.5353C15.522 29.6914 15.5216 29.6917 15.522 29.6914L15.5259 29.689L15.5316 29.6854L15.548 29.6752C15.5612 29.6671 15.579 29.6563 15.6011 29.6432C15.6453 29.617 15.7069 29.5813 15.7845 29.5388C15.9395 29.454 16.1595 29.3409 16.4324 29.2199C16.9747 28.9797 17.7448 28.7003 18.6412 28.5583C20.3804 28.2829 22.6239 28.5322 24.4983 30.5532L32.0622 31.472C32.4816 31.5229 32.8237 31.8319 32.917 32.2439C33.0102 32.6559 32.8345 33.0821 32.478 33.3087L31.9416 32.4647C32.478 33.3087 32.4784 33.3084 32.478 33.3087L32.4763 33.3098L32.4741 33.3112L32.4684 33.3147L32.452 33.3249C32.4388 33.333 32.421 33.3438 32.3989 33.3569C32.3547 33.3832 32.2931 33.4188 32.2155 33.4613C32.0605 33.5462 31.8405 33.6593 31.5676 33.7802C31.0253 34.0204 30.2552 34.2998 29.3588 34.4418C27.5357 34.7305 25.1584 34.4426 23.2331 32.1418C21.8743 30.518 20.2808 30.3236 18.9541 30.5337C18.2757 30.6411 17.6761 30.8564 17.2425 31.0485C17.0274 31.1438 16.8579 31.2313 16.7453 31.2929C16.6891 31.3237 16.6475 31.3479 16.6219 31.3631C16.609 31.3707 16.6002 31.3761 16.5957 31.3789L16.594 31.3798ZM14.7428 22.35C14.6238 23.0877 15.1242 23.7952 15.8073 24.2327C16.5211 24.6898 17.5386 24.9398 18.7371 24.7628C19.983 24.5789 20.8685 23.8876 21.3905 23.0974C21.8949 22.334 22.1025 21.4045 21.8708 20.7157C21.8163 20.5539 21.6831 20.431 21.5174 20.3899C21.3517 20.3487 21.1764 20.395 21.0526 20.5125C19.2567 22.2173 17.2288 22.636 15.4105 21.961C15.2702 21.9089 15.114 21.9224 14.9847 21.9977C14.8554 22.073 14.7667 22.2023 14.7428 22.35Z" fill="param(fill) #333333"/>
<path fill-rule="evenodd" clip-rule="evenodd" d="M0 0H48V48H0V0ZM42 24C42 33.9411 33.9411 42 24 42C14.0589 42 6 33.9411 6 24C6 14.0589 14.0589 6 24 6C33.9411 6 42 14.0589 42 24Z" fill="param(fill) #333333"/>
</svg>