<svg xmlns="http://www.w3.org/2000/svg" width="512" height="512" viewBox="0 0 48 48">
<path d="M18 18C18 15.7909 19.7909 14 22 14H26C26.4369 14 26.8567 14.0696 27.2495 14.1985L18 29.3808V18Z" fill="param(fill) #333333"/>
<path d="M20.1463 33.546L29.9607 17.4363C29.9866 17.6205 30 17.8086 30 18V30C30 32.2091 28.2091 34 26 34H22C21.3308 34 20.7006 33.8365 20.1463 33.546Z" fill="param(fill) #333333"/>
<path fill-rule="evenodd" clip-rule="evenodd" d="M48 0H0V48H48V0ZM22 10C17.5817 10 14 13.5817 14 18V30C14 32.0477 14.7719 33.9198 16.0375 35.3338C17.4995 36.9673 19.6305 38 22 38H26C30.4183 38 34 34.4183 34 30V18C34 15.6305 32.9673 13.4995 31.3338 12.0375C29.9198 10.7719 28.0477 10 26 10H22Z" fill="param(fill) #333333"/>
</svg>