<svg xmlns="http://www.w3.org/2000/svg" width="512" height="512" viewBox="0 0 48 48">
<path d="M14 12.0479H21V14.0479H14V12.0479Z" fill="param(fill) #333333"/>
<path d="M21 16.0479H16V18.0479H21V16.0479Z" fill="param(fill) #333333"/>
<path d="M23 18.0479V16.0479H25V18.0479H23Z" fill="param(fill) #333333"/>
<path d="M21 20.0479H13V22.0479H21V20.0479Z" fill="param(fill) #333333"/>
<path d="M23 22.0479V20.0479H25V22.0479H23Z" fill="param(fill) #333333"/>
<path d="M21 24.0479H14V26.0479H21V24.0479Z" fill="param(fill) #333333"/>
<path d="M23 26.0479V24.0479H25V26.0479H23Z" fill="param(fill) #333333"/>
<path d="M11 28.0479V30.0479H21V28.0479H11Z" fill="param(fill) #333333"/>
<path d="M37 30.0479V28.0479H27V30.0479H37Z" fill="param(fill) #333333"/>
<path d="M25 28.0479V30H23V28.0479H25Z" fill="param(fill) #333333"/>
<path d="M27 26.0479H34V24.0479H27V26.0479Z" fill="param(fill) #333333"/>
<path d="M27 22.0479H35V20.0479H27V22.0479Z" fill="param(fill) #333333"/>
<path d="M27 18.0479H32V16.0479H27V18.0479Z" fill="param(fill) #333333"/>
<path d="M27 14.0479H34V12.0479H27V14.0479Z" fill="param(fill) #333333"/>
<path d="M25 12.0479V14.0479H23V12.0479H25Z" fill="param(fill) #333333"/>
<path d="M35 36V32.0479H13V36H20V34.0479H28V36H35Z" fill="param(fill) #333333"/>
<path d="M28 38V40H39V38H28Z" fill="param(fill) #333333"/>
<path d="M20 38V40H9V38H20Z" fill="param(fill) #333333"/>
<path fill-rule="evenodd" clip-rule="evenodd" d="M48 0H0V48H48V0ZM35 10.0479H29.917C29.441 7.21014 26.973 5.04785 24 5.04785C21.027 5.04785 18.559 7.21014 18.083 10.0479H13C12.4477 10.0479 12 10.4956 12 11.0479V15.0479C12 15.6001 12.4477 16.0479 13 16.0479H14V18.0479H12C11.4477 18.0479 11 18.4956 11 19.0479V23.0479C11 23.6001 11.4477 24.0479 12 24.0479V26.0479H10C9.44772 26.0479 9 26.4956 9 27.0479V31.0479C9 31.6001 9.44772 32.0479 10 32.0479H11V36H8C7.44772 36 7 36.4477 7 37V41C7 41.5523 7.44772 42 8 42H20V42.0479H28V42H40C40.5523 42 41 41.5523 41 41V37C41 36.4477 40.5523 36 40 36H37V32.0479H38C38.5523 32.0479 39 31.6001 39 31.0479V27.0479C39 26.4956 38.5523 26.0479 38 26.0479H36V24.0479C36.5523 24.0479 37 23.6001 37 23.0479V19.0479C37 18.4956 36.5523 18.0479 36 18.0479H34V16.0479H35C35.5523 16.0479 36 15.6001 36 15.0479V11.0479C36 10.4956 35.5523 10.0479 35 10.0479Z" fill="param(fill) #333333"/>
</svg>